####
#
#	OBJ File Generated by LightWave3D
#	LightWave3D OBJ Export v2.3
#
####
o Cone.obj
mtllib Cone.mtl
g default
v 0.5 0 -0
v 0.482963 0 -0.12941
v 0.433013 0 -0.25
v 0.353553 0 -0.353553
v 0.25 0 -0.433013
v 0.12941 0 -0.482963
v 0 0 -0.5
v -0.12941 0 -0.482963
v -0.25 0 -0.433013
v -0.353553 0 -0.353553
v -0.433013 0 -0.25
v -0.482963 0 -0.12941
v -0.5 0 -0
v -0.482963 0 0.12941
v -0.433013 0 0.25
v -0.353553 0 0.353553
v -0.25 0 0.433013
v -0.12941 0 0.482963
v 0 0 0.5
v 0.12941 0 0.482963
v 0.25 0 0.433013
v 0.353553 0 0.353553
v 0.433013 0 0.25
v 0.482963 0 0.12941
v 0 1 -0
vn -0 -1 -0
vn -0 -1 -0
vn -0 -1 -0
vn -0 -1 -0
vn -0 -1 -0
vn -0 -1 -0
vn -0 -1 -0
vn -0 -1 -0
vn -0 -1 -0
vn -0 -1 -0
vn -0 -1 -0
vn -0 -1 -0
vn -0 -1 -0
vn -0 -1 -0
vn -0 -1 -0
vn -0 -1 -0
vn -0 -1 -0
vn -0 -1 -0
vn -0 -1 -0
vn -0 -1 -0
vn -0 -1 -0
vn -0 -1 -0
vn -0 -1 -0
vn -0 -1 -0
vn 0.88829 0.444145 -0.116946
vn 0.88829 0.444145 -0.116946
vn 0.88829 0.444145 -0.116946
vn 0.827754 0.444145 -0.342867
vn 0.827754 0.444145 -0.342867
vn 0.827754 0.444145 -0.342867
vn 0.710809 0.444145 -0.545423
vn 0.710809 0.444145 -0.545423
vn 0.710809 0.444145 -0.545423
vn 0.545423 0.444145 -0.710809
vn 0.545423 0.444145 -0.710809
vn 0.545423 0.444145 -0.710809
vn 0.342867 0.444145 -0.827754
vn 0.342867 0.444145 -0.827754
vn 0.342867 0.444145 -0.827754
vn 0.116946 0.444145 -0.88829
vn 0.116946 0.444145 -0.88829
vn 0.116946 0.444145 -0.88829
vn -0.116946 0.444145 -0.88829
vn -0.116946 0.444145 -0.88829
vn -0.116946 0.444145 -0.88829
vn -0.342867 0.444145 -0.827754
vn -0.342867 0.444145 -0.827754
vn -0.342867 0.444145 -0.827754
vn -0.545423 0.444145 -0.710809
vn -0.545423 0.444145 -0.710809
vn -0.545423 0.444145 -0.710809
vn -0.710809 0.444145 -0.545423
vn -0.710809 0.444145 -0.545423
vn -0.710809 0.444145 -0.545423
vn -0.827754 0.444145 -0.342867
vn -0.827754 0.444145 -0.342867
vn -0.827754 0.444145 -0.342867
vn -0.88829 0.444145 -0.116946
vn -0.88829 0.444145 -0.116946
vn -0.88829 0.444145 -0.116946
vn -0.88829 0.444145 0.116946
vn -0.88829 0.444145 0.116946
vn -0.88829 0.444145 0.116946
vn -0.827754 0.444145 0.342867
vn -0.827754 0.444145 0.342867
vn -0.827754 0.444145 0.342867
vn -0.710809 0.444145 0.545423
vn -0.710809 0.444145 0.545423
vn -0.710809 0.444145 0.545423
vn -0.545423 0.444145 0.710809
vn -0.545423 0.444145 0.710809
vn -0.545423 0.444145 0.710809
vn -0.342867 0.444145 0.827754
vn -0.342867 0.444145 0.827754
vn -0.342867 0.444145 0.827754
vn -0.116946 0.444145 0.88829
vn -0.116946 0.444145 0.88829
vn -0.116946 0.444145 0.88829
vn 0.116946 0.444145 0.88829
vn 0.116946 0.444145 0.88829
vn 0.116946 0.444145 0.88829
vn 0.342867 0.444145 0.827754
vn 0.342867 0.444145 0.827754
vn 0.342867 0.444145 0.827754
vn 0.545423 0.444145 0.710809
vn 0.545423 0.444145 0.710809
vn 0.545423 0.444145 0.710809
vn 0.710809 0.444145 0.545423
vn 0.710809 0.444145 0.545423
vn 0.710809 0.444145 0.545423
vn 0.827754 0.444145 0.342867
vn 0.827754 0.444145 0.342867
vn 0.827754 0.444145 0.342867
vn 0.88829 0.444145 0.116946
vn 0.88829 0.444145 0.116946
vn 0.88829 0.444145 0.116946
g Default
usemtl Default
s off
f 24//1 23//2 22//3 21//4 20//5 19//6 18//7 17//8 16//9 15//10 14//11 13//12 12//13 11//14 10//15 9//16 8//17 7//18 6//19 5//20 4//21 3//22 2//23 1//24
f 2//25 25//26 1//27
f 3//28 25//29 2//30
f 4//31 25//32 3//33
f 5//34 25//35 4//36
f 6//37 25//38 5//39
f 7//40 25//41 6//42
f 25//43 7//44 8//45
f 25//46 8//47 9//48
f 25//49 9//50 10//51
f 25//52 10//53 11//54
f 25//55 11//56 12//57
f 25//58 12//59 13//60
f 25//61 13//62 14//63
f 25//64 14//65 15//66
f 25//67 15//68 16//69
f 25//70 16//71 17//72
f 25//73 17//74 18//75
f 25//76 18//77 19//78
f 20//79 25//80 19//81
f 21//82 25//83 20//84
f 22//85 25//86 21//87
f 23//88 25//89 22//90
f 24//91 25//92 23//93
f 1//94 25//95 24//96
